{
  "area": "",
  "project": "",
  "desc": "",
  "start": "",
  "stop": "",
  "time": ""
}{
  "area": "Timer",
  "project": "unknown",
  "desc": "unknown",
  "start": 1565369938683,
  "stop": "1565369938683.05",
  "time": ".05"
}{
  "area": "Timer",
  "project": "unknown",
  "desc": "unknown",
  "start": 1565371303591,
  "stop": "156537130359125",
  "time": "25"
}{
  "area": "Timer",
  "project": "unknown",
  "desc": "unknown",
  "start": 1565479178445,
  "stop": "156547917844525",
  "time": "25"
}{
  "area": "Timer",
  "project": "unknown",
  "desc": "unknown",
  "start": 1565479422290,
  "stop": "156547942229025",
  "time": "25"
}{
  "area": "Timer",
  "project": "unknown",
  "desc": "unknown",
  "start": 1565481021647,
  "stop": "156548102164725",
  "time": "25"
}{
  "area": "Timer",
  "project": "unknown",
  "desc": "unknown",
  "start": 1565481567825,
  "stop": "156548156782525",
  "time": "25"
}{
  "area": "Timer",
  "project": "unknown",
  "desc": "unknown",
  "start": 1565485640597,
  "stop": "1565485640597.005"
}{
  "area": "Timer",
  "project": "unknown",
  "desc": "unknown",
  "start": 1565485777211,
  "stop": "1565485777211.oot"
}{
  "area": "Timer",
  "project": "unknown",
  "desc": "unknown",
  "start": 1565485784907,
  "stop": "1565485784907.005"
}{
  "area": "Timer",
  "project": "unknown",
  "desc": "unknown",
  "start": 1565485900160,
  "stop": "1565485900160.005",
  "time": 0.0048828125
}{
  "area": "Timer",
  "project": "unknown",
  "desc": "unknown",
  "start": 1565486038054,
  "stop": "1565486038054.005",
  "time": 0.0048828125
}{
  "area": "Timer",
  "project": "unknown",
  "desc": "unknown",
  "start": 1565486178718,
  "stop": "1565486178718.005",
  "time": 0.0048828125
}{
  "area": "Timer",
  "project": "unknown",
  "desc": "unknown",
  "start": 1565486262951,
  "stop": "1565486262951.005",
  "time": 0
}{
  "area": "Timer",
  "project": "unknown",
  "desc": "unknown",
  "start": 1565486285736,
  "stop": "15654862857361",
  "time": 14089376571625
}{
  "area": "Timer",
  "project": "unknown",
  "desc": "unknown",
  "start": 1565486353283,
  "stop": "15654863532831",
  "time": 14089377179548
}{
  "area": "Timer",
  "project": "unknown",
  "desc": "unknown",
  "start": 1565486448206,
  "stop": 1565486448207,
  "time": 1
}{
  "area": "Timer",
  "project": "unknown",
  "desc": "unknown",
  "start": 1565486510320,
  "stop": 1565486510321,
  "time": 1
}{
  "area": "Timer",
  "project": "unknown",
  "desc": "unknown",
  "start": 1565486557227,
  "stop": 1565486557228,
  "time": 1
}{
  "area": "Timer",
  "project": "unknown",
  "desc": "unknown",
  "start": 1565486594020,
  "stop": 1565486594022,
  "time": 2
}{
  "area": "Timer",
  "project": "unknown",
  "desc": "unknown",
  "start": 1565486738169,
  "stop": 1565486738169.05,
  "time": 0
}{
  "area": "Timer",
  "project": "unknown",
  "desc": "unknown",
  "start": 1565486750754,
  "stop": 1565486750755,
  "time": 1
}{
  "area": "Timer",
  "project": "unknown",
  "desc": "unknown",
  "start": 1565486816396,
  "stop": 1565486816397,
  "time": 1
}{
  "area": "Timer",
  "project": "unknown",
  "desc": "unknown",
  "start": 1565486888295,
  "stop": 1565486888296,
  "time": 1
}{
  "area": "Timer",
  "project": "unknown",
  "desc": "unknown",
  "start": 1565486917000,
  "stop": 1565486917002,
  "time": 2
}{
  "area": "Timer",
  "project": "unknown",
  "desc": "unknown",
  "start": 1565486977730,
  "stop": 1565486977731,
  "time": 1
}{
  "area": "Timer",
  "project": "unknown",
  "desc": "unknown",
  "start": 1565487011859,
  "stop": 1565487011860,
  "time": 1
}{
  "area": "Timer",
  "project": "unknown",
  "desc": "unknown",
  "start": 1565487891864,
  "stop": 1565487891865,
  "time": 1
}{
  "area": "code",
  "project": "minuteur",
  "desc": "Migrated to typescript now attempting stop",
  "start": "21.52",
  "stop": "21.53",
  "time": 0
}{
  "area": "Timer",
  "project": "unknown",
  "desc": "unknown",
  "start": 1565488521572,
  "stop": 1565488521573,
  "time": 1
}{
  "area": "Timer",
  "project": "unknown",
  "desc": "unknown",
  "start": 1565488774292,
  "stop": 1565488774293,
  "time": 1
}{
  "area": "Timer",
  "project": "unknown",
  "desc": "unknown",
  "start": 1565488866391,
  "stop": 1565488866392,
  "time": 1
}{
  "area": "Timer",
  "project": "unknown",
  "desc": "unknown",
  "start": 1565488894712,
  "stop": 1565488894713,
  "time": 1
}{
  "area": "Timer",
  "project": "unknown",
  "desc": "unknown",
  "start": 1565488956210,
  "stop": 1565488956211,
  "time": 1
}{
  "area": "Timer",
  "project": "unknown",
  "desc": "unknown",
  "start": 1565488999187,
  "stop": 1565488999188,
  "time": 1
}{
  "area": "Timer",
  "project": "unknown",
  "desc": "unknown",
  "start": 1565489033044,
  "stop": 1565489033045,
  "time": 1
}{
  "area": "Timer",
  "project": "unknown",
  "desc": "unknown",
  "start": 1565489158833,
  "stop": "15654891588331",
  "time": 14089402429498
}{
  "area": "Timer",
  "project": "unknown",
  "desc": "unknown",
  "start": 1565489335710,
  "stop": "15654893357101",
  "time": "1"
}{
  "area": "Timer",
  "project": "unknown",
  "desc": "unknown",
  "start": 1565489388968,
  "stop": "15654893889681",
  "time": "1"
}{
  "area": "Timer",
  "project": "unknown",
  "desc": "unknown",
  "start": 1565489418968,
  "stop": "15654894189681",
  "time": "1"
}{
  "area": "Timer",
  "project": "unknown",
  "desc": "unknown",
  "start": 1565489426937,
  "stop": "15654894269371000",
  "time": "1000"
}{
  "area": "Timer",
  "project": "unknown",
  "desc": "unknown",
  "start": 1565489453906,
  "stop": "15654894539062000",
  "time": "2000"
}{
  "area": "Timer",
  "project": "unknown",
  "desc": "unknown",
  "start": 1565489551790,
  "stop": 1565489551792,
  "time": "2"
}{
  "area": "Timer",
  "project": "unknown",
  "desc": "unknown",
  "start": 1565489593111,
  "stop": 1565489594111,
  "time": 1000
}{
  "area": "Timer",
  "project": "unknown",
  "desc": "unknown",
  "start": 1565489627096,
  "stop": 1565489628096,
  "time": 1000
}{
  "area": "Timer",
  "project": "unknown",
  "desc": "unknown",
  "start": 1565491300682,
  "stop": 1565491303682,
  "time": 3000
}{
  "area": "Timer",
  "project": "unknown",
  "desc": "unknown",
  "start": 1565491321643,
  "stop": 1565491324643,
  "time": 3000
}{
  "area": "Timer",
  "project": "unknown",
  "desc": "unknown",
  "start": 1565491514650,
  "stop": 1565491514653,
  "time": 2000
}